###############################################################################
    하나의 서버에 kilo 콤포넌트를 모두 설치하기 위한 스크립트임
###############################################################################

#------------------------------------------------------------------------------------------------------------------------------
#  노드의 구성에서 중요한 정보 (이중화 구성은 고려 안했음)
#------------------------------------------------------------------------------------------------------------------------------
#  * TODO: 현재는 Compute 노드의 네트워크 구성이 
#    LAN/WAN 인터페이스로 existing network와 연결되는 구성만 가정
#    추후에는 배열을 이용해서 동적으로 existing network와 연결하는 포인트를 확장할 수 있도록 구성
#-------------------------------------------------------------------------------------------------------------------------------

* OpenStack 노드를 Controller, Compute, Network로 분류 (Storage제외)

1) Controller 노드
  - 관리용 인터페이스 + IP
  - 외부 접속용 인터페이스 + IP (horizon)
  
2) Network 노드
  - 관리용 인터페이스 + IP  
  - br-ex용 인터페이스 + floating ip 할당 대역
  - guest용 인터페이스: 컴퓨트 노드와 네트워크 노드 간 연결
  
3) Compute 노드
  - 관리용 인터페이스 + IP  
  - guest용 인터페이스: 컴퓨트 노드와 네트워크 노드 간 연결
  - lan용, wan용 인터페이스: existing network와 transparent한 네트워킹 제공 

#------------------------------------------------------------------------------------------------------------------------------
#  All-in-one
#-------------------------------------------------------------------------------------------------------------------------------

* All-in-one은 하나의 서버에 Controller + Compute + Network 노드를 구성하는 것임
  (guest용 인터페이스는 필요 없음)

1) All-in-one 노드 구성 정보
  - 관리용 인터페이스 + IP
  - 외부 접속용 인터페이스 + IP (horizon)
  - br-ex용 인터페이스 + floating ip 할당 대역
  - lan용, wan용 인터페이스: existing network와 transparent한 네트워킹 제공 

#------------------------------------------------------------------------------------------------------------------------------
#  M (CTRL&NW) 노드 + Compute 노드 
#-------------------------------------------------------------------------------------------------------------------------------

* M노드는 controller와 network 노드의 역할을 하나로 묶은 노드

1) M 노드 구성 정보
  - 관리용 인터페이스 + IP
  - 외부 접속용 인터페이스 + IP (horizon)
  - br-ex용 인터페이스 + floating ip 할당 대역
  - guest용 인터페이스: 컴퓨트 노드와 네트워크 노드 간 연결
  
2) Compute 노드 구성 정보
  - 관리용 인터페이스 + IP
  - guest용 인터페이스: 컴퓨트 노드와 네트워크 노드 간 연결
  - lan용, wan용 인터페이스: existing network와 transparent한 네트워킹 제공 

#-------------------------------------------------------------------------------------------------------------------------------